[
    {
      "index": 1,
      "STATE": " malacca",
      "Investigated_status": 11.9402985075
    },
    {
      "index": 3,
      "STATE": "johor",
      "Investigated_status": 15.5388471178
    },
    {
      "index": 5,
      "STATE": "kedah",
      "Investigated_status": 16.049382716
    },
    {
      "index": 7,
      "STATE": "kelantan",
      "Investigated_status": 18.8888888889
    },
    {
      "index": 9,
      "STATE": "negeri sembilan",
      "Investigated_status": 16.1016949153
    },
    {
      "index": 11,
      "STATE": "pahang",
      "Investigated_status": 25.2032520325
    },
    {
      "index": 13,
      "STATE": "penang",
      "Investigated_status": 25
    },
    {
      "index": 15,
      "STATE": "perak",
      "Investigated_status": 17.9856115108
    },
    {
      "index": 17,
      "STATE": "pertis",
      "Investigated_status": 18.8524590164
    },
    {
      "index": 19,
      "STATE": "selangor",
      "Investigated_status": 16.2055335968
    }
  ]