{
   "data": [
       {
      "RuleNumber": "1",
      "RuleDescription": "Claims Amount Greater than 2000",
      "DateCreated": "2022-03-03 00:00:00",
      "Alert": 6,
      "Investigation": 5,
      "Frauds": 2,
      "Savings": 7522.268688
       },
     {
        "RuleNumber": "2",
        "RuleDescription": "Claims Amount Less than 12000",
        "DateCreated": "2022-03-02 00:00:00",
        "Alert": 10,
        "Investigation": 7,
        "Frauds": 6,
        "Savings": 12579.127008
      },
     {
        "RuleNumber": "3",
        "RuleDescription": "Claims Age Greater than 20",
        "DateCreated": "2022-03-02 00:00:00",
        "Alert": 5,
        "Investigation": 3,
        "Frauds": 3,
        "Savings": 3307.21152
      },
     {
        "RuleNumber": "4",
        "RuleDescription": "Claims Amount Less than or equal to 1234",
        "DateCreated": "2022-03-02 00:00:00",
        "Alert": 2,
        "Investigation": 1,
        "Frauds": 2,
        "Savings": 1768.4005200000001
      },
     {
        "RuleNumber": "5",
        "RuleDescription": "Claims Age Less than 30",
        "DateCreated": "2022-03-02 00:00:00",
        "Alert": 8,
        "Investigation": 6,
        "Frauds": 4,
        "Savings": 10032.547008000001
      },
      {
        "RuleNumber": "6",
        "RuleDescription": "Claims Amount Greater than or equal to 9000",
        "DateCreated": "2022-02-28 00:00:00",
        "Alert": 0,
        "Investigation": 0,
        "Frauds": 0,
        "Savings": 0
      }
    ]
   
  }