[{
"KPICard":[ 
    {
    "Claims_Initiated": 2137,
    "Total_Investigated": 370,
    "Total_Closed": 299,
    "Paid_Claims": 144,
    "Rejected": 56,
    "Fraud_Suspected_Claims": 206,
    "Investigation_rate": 0.1731399157697707,
    "Fraud_detection": 0.5567567567567567
    }
],
"ComboChartdata": [
    {
      "index": "No",
      "PAID": 170
    },
    {
      "index": "Yes",
      "PAID": 144
    },
    {
      "index": "Rejected",
      "PAID": 56
    }
  ]
}]

