  [
    {
      "index": "Qt 1",
      "Suspicious": 24,
      "Non Suspicious": 34,
      "lift": 5.91
    },
    {
      "index": "Qt 2",
      "Suspicious": 7,
      "Non Suspicious": 51,
      "lift": 1.73
    },
    {
      "index": "Qt 3",
      "Suspicious": 0,
      "Non Suspicious": 57,
      "lift": 0
    },
    {
      "index": "Qt 4",
      "Suspicious": 4,
      "Non Suspicious": 54,
      "lift": 1.01
    },
    {
      "index": "Qt 5",
      "Suspicious": 2,
      "Non Suspicious": 56,
      "lift": 0.43
    },
    {
      "index": "Qt 6",
      "Suspicious": 1,
      "Non Suspicious": 56,
      "lift": 0.29
    },
    {
      "index": "Qt 7",
      "Suspicious": 1,
      "Non Suspicious": 57,
      "lift": 0.29
    },
    {
      "index": "Qt 8",
      "Suspicious": 0,
      "Non Suspicious": 57,
      "lift": 0
    },
    {
      "index": "Qt 9",
      "Suspicious": 0,
      "Non Suspicious": 58,
      "lift": 0
    },
    {
      "index": "Qt 10",
      "Suspicious": 1,
      "Non Suspicious": 57,
      "lift": 0.29
    }
  ]